<?xml version="1.0" encoding="utf-8"?>
<!-- Generator: Adobe Illustrator 16.0.0, SVG Export Plug-In . SVG Version: 6.00 Build 0)  -->
<!DOCTYPE svg PUBLIC "-//W3C//DTD SVG 1.1//EN" "http://www.w3.org/Graphics/SVG/1.1/DTD/svg11.dtd">
<svg version="1.1" id="Layer_1" xmlns="http://www.w3.org/2000/svg" xmlns:xlink="http://www.w3.org/1999/xlink" x="0px" y="0px"
	 width="72.81px" height="78.619px" viewBox="0 0 72.81 78.619" enable-background="new 0 0 72.81 78.619" xml:space="preserve">
<path fill="#FFFFFF" d="M27.156,42.851c-2.4,10.608-14.34,32.842,2.59,35.43c3.482,0.531,13.57,0.674,16.49-1.391
	c11.639-8.231,1.749-23.899-0.667-34.053"/>
<g>
	<path fill="#00A651" d="M29.129,2.238C19.377,5.117-1.832,16.089,1.842,30.276c3.803,14.697,32.063,12.869,43.645,12.583
		c30.857-0.76,30.791-20.011,17.172-32.004C54.848,3.978,42.58-0.513,29.129,2.238z"/>
	<path fill="#FFFFFF" d="M34.973,44.499c-7.646,0-30.915,0-34.503-13.868C-3.422,15.602,17.827,4.096,28.728,0.879l0.117-0.029
		C31.601,0.286,34.406,0,37.181,0c9.72,0,19.347,3.569,26.414,9.792c7.665,6.749,10.877,15.203,8.384,22.062
		c-1.613,4.436-7.194,11.948-26.458,12.422c-0.713,0.018-1.49,0.041-2.32,0.066C40.888,44.412,38.01,44.499,34.973,44.499z
		 M29.472,3.615C19.808,6.486-0.119,17.049,3.214,29.92c2.045,7.902,12.433,11.744,31.759,11.744c2.994,0,5.729-0.083,8.142-0.155
		c0.836-0.025,1.618-0.049,2.336-0.066c13.03-0.321,21.504-4.07,23.863-10.557c2.054-5.651-0.926-13.096-7.593-18.967
		c-6.556-5.773-15.501-9.084-24.541-9.084C34.616,2.835,32.023,3.097,29.472,3.615z"/>
</g>
<path fill="#FFFFFF" d="M8.088,13.716c4.006,13.5,29.262-1.779,17.51-10.625c0,0-5.34,0.774-9.949,3.765
	C10.129,10.438,8.088,13.716,8.088,13.716z"/>
<path fill="#FFFFFF" d="M40.658,13.628c-9.637,4.483-5.98,21.287,7.068,19.681C61.895,31.563,52.795,7.982,40.658,13.628z"/>
<path fill="#FFFFFF" d="M20.824,29.063c-8.115-0.656-12.074,11.646-2.598,13.881C25.537,44.666,28.973,29.721,20.824,29.063z"/>
<path fill="#FFFFFF" d="M62.906,11.076c-0.961,7.225,1.799,14.412,8.477,16.658C72.537,19.632,66.641,12.908,62.906,11.076z"/>
</svg>
